<?xml version="1.0" encoding="UTF-8"?>
<session version="1.0">
<refactoring comment="Rename Java project &apos;spring-microservice-config&apos; to &apos;spring-microservice-service&apos;&#x0A;- Original element: &apos;spring-microservice-config&apos;&#x0A;- Renamed element: &apos;spring-microservice-config&apos;&#x0A;- Update references to refactored element" description="Rename Java project &apos;spring-microservice-config&apos;" flags="7" id="org.eclipse.jdt.ui.rename.java.project" input="=spring-microservice-config" name="spring-microservice-service" references="true" stamp="1477828353547" version="1.0"/>
</session>