<?xml version="1.0" encoding="UTF-8"?>
<session version="1.0">
<refactoring comment="Rename type &apos;com.example.SpringMicroserviceConfigApplication&apos; to &apos;SpringMicroserviceServiceComponent&apos;&#x0A;- Original project: &apos;spring-microservice-service&apos;&#x0A;- Original element: &apos;com.example.SpringMicroserviceConfigApplication&apos;&#x0A;- Renamed element: &apos;com.example.SpringMicroserviceServiceComponent&apos;&#x0A;- Update references to refactored element&#x0A;- Update textual occurrences in comments and strings" description="Rename type &apos;SpringMicroserviceConfigApplication&apos;" flags="589830" id="org.eclipse.jdt.ui.rename.type" input="/src\/main\/java&lt;com.example{SpringMicroserviceConfigApplication.java[SpringMicroserviceConfigApplication" matchStrategy="1" name="SpringMicroserviceServiceComponent" qualified="false" references="true" similarDeclarations="false" stamp="1477829087570" textual="false" version="1.0"/>
</session>